::: Schedule :::
  0   1   2   3   4   5   6   7   8   9  10  11  12  13  14  15  16  17  18  19  20  21  22  23  24  25  26  27  28  29  30  31 |  m
----------------------------------------------------------------------------------------------------------------------------------------------------------------
  0   0   5   5   5  -5  -5  -5  -5   3   3   3   3   3  17  17  17  17  17   0   0   0   0   0   0   0   0   0   0   0   0   0 |  0
  0   0   0   4   4   4   4   4   4   4   4   4 -10 -10  10  10  10  10  10  10  10  10   0   0   0   0   0   0   0   0   0   0 |  1
  0   0   0   7   7  -7  -7  -7  -7 -11  11  11  11  11  11 -11 -11 -11  -8  -8   8   8   8   8   8   8   8   8   0   0   0   0 |  2
  0   0   0 -12 -12  12  12  12  12  12 -12 -15  15  15  15  15  15  15  20  20  20  20  20   0   0   0   0   0   0   0   0   0 |  3
  0   0   0   0  -1   1   1   1   1 -13 -13  13  13  13  13  13  13  13   0   0   0   0   0   0   0   0   0   0   0   0   0   0 |  4
  0   0   0   0  19  19  19  19  19  19  19  19  19   0   0   9   9   9   9   9   9   9   9   9   0   0   0   0   0   0   0   0 |  5
  0   0   0   0   0   0   0 -14  14  14  14  14  14  14 -14 -14 -14  -6   6   6   6   6   6   6   6   0   0   0   0   0   0   0 |  6
  0   0   0   0   0   0   0   0  -2   2   2   2   2   2  -2   0   0 -18 -18  18  18  18  18  18  18  18  18   0   0   0   0   0 |  7
  0   0   0   0   0   0   0   0   0   0   0 -16 -16 -16  16  16  16  16  16   0   0   0   0   0   0   0   0   0   0   0   0   0 |  8
  0   0   0   0   0   0   0   0   0   0   0   0   0   0   0   0   0   0   0   0   0   0   0   0   0   0   0   0   0   0   0   0 |  9
  0   0   0   0   0   0   0   0   0   0   0   0   0   0   0   0   0   0   0   0   0   0   0   0   0   0   0   0   0   0   0   0 | 10
  0   0   0   0   0   0   0   0   0   0   0   0   0   0   0   0   0   0   0   0   0   0   0   0   0   0   0   0   0   0   0   0 | 11
  0   0   0   0   0   0   0   0   0   0   0   0   0   0   0   0   0   0   0   0   0   0   0   0   0   0   0   0   0   0   0   0 | 12
  0   0   0   0   0   0   0   0   0   0   0   0   0   0   0   0   0   0   0   0   0   0   0   0   0   0   0   0   0   0   0   0 | 13
  0   0   0   0   0   0   0   0   0   0   0   0   0   0   0   0   0   0   0   0   0   0   0   0   0   0   0   0   0   0   0   0 | 14
  0   0   0   0   0   0   0   0   0   0   0   0   0   0   0   0   0   0   0   0   0   0   0   0   0   0   0   0   0   0   0   0 | 15

  0   0  11  26  29  23  23  23  27  27  22  26  26  22  27  27  27  27  27  19  22  22  19  15  11   7   7   4   0   0   0   0 | P
Power Limit: 30.0
Total Profit: 12.735872235872234
Optimization time: 250ms
Unscheduled activities: 0
