::: Schedule :::
  0   1   2   3   4   5   6   7   8   9  10  11  12  13  14  15  16  17  18  19  20  21  22  23  24  25  26  27  28  29  30  31 |  m
----------------------------------------------------------------------------------------------------------------------------------------------------------------
 70  70  70 -70 -70 -70 -70 -70 -70 -70  21  21  21 -21 -21   9   9   9   9   9   9   9   9   9   0   0   0   0   0   0   0   0 |  0
  0  36  36 -36 -36 -36  37  37 -37 -37 -37  15  15  15 -15 -15 -15 -15  -8  -8   8   8   8   8   8   8   8   8   0   0   0   0 |  1
  0  38  38 -38 -38 -38  71  71 -71 -71 -71  16  16  16 -16 -16 -16 -16 -16 -34 -34 -34 -34  34  34  34  34  34   0   0   0   0 |  2
  0  44  44  44 -44 -44 -44   0   0   0   0   0   0   0   0   0   0  -6  -6  -6  -6   6   6   6   6   0   0   0   0   0   0   0 |  3
  0  91  91  91 -91 -91 -91 -91 -91 -91 -91   0   0   0   0   0   0   0   0 -63  63  63  63  63  63  63  63  63  63   0   0   0 |  4
  0   0   5   5  -5  -5  -5  -5  -5   0   0   0   0   0   0   0   0   0   0   0   0   0   0   0   0   0   0   0   0   0   0   0 |  5
  0   0  42  42 -42 -42 -42 -42 -42 -42  29  29 -29 -29 -29 -29 -29 -29 -29 -29   0   0   0   0   0   0   0   0   0   0   0   0 |  6
  0   0  45  45 -45 -45 -45 -45 -45   0   0   0   0   0   0   0   0   0  20  20  20  20 -20   0   0   0   0   0   0   0   0   0 |  7
  0   0   0   0   0   0   0   0   0   0   0   0  10  10 -10 -10 -10 -10 -10 -10 -10 -10   0   0   0   0   0   0   0   0   0   0 |  8
  0   0   0   0   0   0   0   0   0   0   0   0   0   0   0   0   0   0  25  25  25 -25 -25 -25   0   0   0   0   0   0   0   0 |  9
  0   0   0   0   0   0   0   0   0   0   0 -74  74  74  74  74  74  74  74 -74   0   0   0   0   0   0   0   0   0   0   0   0 | 10
  0   0   0   0   0   0   0   0   0  26  26 -26 -26 -26 -26  43  43 -43 -43 -43 -43 -43 -43   0   0   0   0   0   0   0   0   0 | 11
  0   0   0   0   0   0   0   0   0   0   0   0  57  57 -57 -57 -57 -57 -57 -57 -57 -57   0   0   0   0   0   0   0   0   0   0 | 12
  0   0   0  68  68 -68 -68 -68 -68 -68 -68 -68   0   0   0   0   0 -18 -18  18  18  18  18  18  18  18  18   0   0   0   0   0 | 13
  0   0   0  73  73 -73 -73 -73 -73  32  32 -32 -32 -32 -32 -32 -46 -46 -46 -46  46  46  46  46  46   0   0   0   0   0   0   0 | 14
  0   0   0  84  84 -84 -84 -84 -84 -84 -84 -84 -84  35  35  35 -35 -35 -35 -35   0   0   0   0   0   0   0   0   0   0   0   0 | 15
  0   0   0   0   1   1  -1  -1  -1  33  33 -33 -33 -33 -33 -65 -65  65  65  65  65  65  65  65  65   0   0   0   0   0   0   0 | 16
  0   0   0   0   0   0   0   0   0   0   0   0   0 -52  52  52  52  52  52  52  52 -52   0   0   0   0   0   0   0   0   0   0 | 17
  0   0   0   0  24  24 -24 -24 -24 -24 -24 -24 -24 -24   0   0   0   0   0   0   0   0   0   0   0   0   0   0   0   0   0   0 | 18
  0   0   0   0  55  55 -55 -55 -55   0   0   0   0   0   0   0  75  75 -75 -75 -75   0   0   0   0   0   0   0   0   0   0   0 | 19
  0   0   0   0  62  62  62 -62 -62 -62 -62 -62  76  76  76 -76 -76 -76 -76   0   0   0   0   0   0   0   0   0   0   0   0   0 | 20
  0   0   0   0  90  90 -90 -90 -90  87  87  87  87  87  87  87  87 -87 -27 -27 -27  27  27  27  27  27   0   0   0   0   0   0 | 21
  0   0   0   0 100 100 -100 -100 -100 -100 -100  79  79  79 -79 -79 -79 -79 -31 -31 -31  31  31  31  31  31   0   0   0   0   0   0 | 22
  0   0   0   0   0  53  53 -53 -53 -53  50  50 -50 -50 -50 -50 -50  23  23  23  23 -23 -23 -23   0   0   0   0   0   0   0   0 | 23
  0   0   0   0   0  58  58 -58 -58 -58 -58 -58 -58   0   0   0   0   0   0   0   0   0   0   0   0   0   0   0   0   0   0   0 | 24
  0   0   0   0   0   0   0   0   0   0   0   0   0   0  41  41  41 -41 -41 -41   0   0   0   0   0   0   0   0   0   0   0   0 | 25
  0   0   0   0   0  86  86  86 -86 -86 -86  96  96  96  96 -96   0  40  40  40  40 -40 -40   0   0   0   0   0   0   0   0   0 | 26
  0   0   0   0   0   0  80  80  80 -80 -80 -97  97  97  97 -97 -97 -97 -92 -92 -92 -92  92  92  92  92  92   0   0   0   0   0 | 27
  0   0   0   0   0   0  81  81  81 -81 -81 -81 -81   0  61  61  61 -61 -61 -61   0   0   0   0   0   0   0   0   0   0   0   0 | 28
  0   0   0   0   0   0  83  83  83 -83 -83 -83 -83   0  85  85  85  85 -85 -85 -85 -85 -85   0   0   0   0   0   0   0   0   0 | 29
  0   0   0   0   0   0   0  39  39  39 -39 -39 -39 -39 -39  77  77  77 -77 -77   0   0   0   0   0   0   0   0   0   0   0   0 | 30
  0   0   0   0   0   0   0  47  47 -47 -47 -47 -47 -47 -47 -47   0 -59 -59 -59 -59  59  59  59  59   0   0   0   0   0   0   0 | 31
  0   0   0   0   0   0   0  56  56 -56 -56 -56   0   0  88  88  88 -88 -88 -88 -88 -88 -88   0   0   0   0   0   0   0   0   0 | 32
  0   0   0   0   0   0   0   0   2   2  -2  -2  -2  -2  -2   0   0  60  60  60 -60 -60 -60   0   0   0   0   0   0   0   0   0 | 33
  0   0   0   0   0   0   0   0  28  28 -28 -28 -28 -28  99  99  99 -99 -99 -99 -99 -99   0   0   0   0   0   0   0   0   0   0 | 34
  0   0   0   0   0   0   0   0  49  49 -49 -49 -49 -49 -49 -49 -49 -49  93  93  93  93  93   0   0   0   0   0   0   0   0   0 | 35
  0   0   0   0   0   0   0   0   0  89  89  89 -89 -89 -89 -89 -89  64  64 -64 -64 -64 -64   0   0   0   0   0   0   0   0   0 | 36
  0   0   0   0   0   0   0   0   0  98  98  98 -98 -98 -98   0   0  69  69  69 -69 -69 -69 -69   0   0   0   0   0   0   0   0 | 37
  0   0   0   0   0   0   0   0   0   0  95  95 -95 -95 -95 -95   0  72  72  72  72  72  72  72  72   0   0   0   0   0   0   0 | 38
  0   0   0   0   0   0   0   0   0   0   0   0   0   0   0   0   0 -82  82  82  82  82  82  82  82  82   0   0   0   0   0   0 | 39
  0   0   0   0   0   0   0   0   0   0   0   0   0   0   0   0   0   0 -94  94  94  94  94  94   0   0   0   0   0   0   0   0 | 40
  0   0   0   0   0   0   0   0   0   0   0   0   0   0   0   0   0   0   0   0   0   0   0   0   0   0   0   0   0   0   0   0 | 41
  0   0   0   0   0   0   0   0   0   0   0   0   0   0   0   0   0   0   0   0   0   0   0   0   0   0   0   0   0   0   0   0 | 42
  0   0   0   0   0   0   0   0   0   0   0   0   0   0   0   0   0   0   0   0   0   0   0   0   0   0   0   0   0   0   0   0 | 43
  0   0   0   0   0   0   0   0   0   0   0   0   0   0   0   0   0   0   0   0   0   0   0   0   0   0   0   0   0   0   0   0 | 44
  0   0   0   0   0   0   0   0   0   0   0   0   0   0   0   0   0   0   0   0   0   0   0   0   0   0   0   0   0   0   0   0 | 45
  0   0   0   0   0   0   0   0   0   0   0   0   0   0   0   0   0   0   0   0   0   0   0   0   0   0   0   0   0   0   0   0 | 46
  0   0   0   0   0   0   0   0   0   0   0   0   0   0   0   0   0   0   0   0   0   0   0   0   0   0   0   0   0   0   0   0 | 47
  0   0   0   0   0   0   0   0   0   0   0   0   0   0   0   0   0   0   0   0   0   0   0   0   0   0   0   0   0   0   0   0 | 48
  0   0   0   0   0   0   0   0   0   0   0   0   0   0   0   0   0   0   0   0   0   0   0   0   0   0   0   0   0   0   0   0 | 49
  0   0   0   0   0   0   0   0   0   0   0   0   0   0   0   0   0   0   0   0   0   0   0   0   0   0   0   0   0   0   0   0 | 50
  0   0   0   0   0   0   0   0   0   0   0   0   0   0   0   0   0   0   0   0   0   0   0   0   0   0   0   0   0   0   0   0 | 51
  0   0   0   0   0   0   0   0   0   0   0   0   0   0   0   0   0   0   0   0   0   0   0   0   0   0   0   0   0   0   0   0 | 52
  0   0   0   0   0   0   0   0   0   0   0   0   0   0   0   0   0   0   0   0   0   0   0   0   0   0   0   0   0   0   0   0 | 53
  0   0   0   0   0   0   0   0   0   0   0   0   0   0   0   0   0   0   0   0   0   0   0   0   0   0   0   0   0   0   0   0 | 54
  0   0   0   0   0   0   0   0   0   0   0   0   0   0   0   0   0   0   0   0   0   0   0   0   0   0   0   0   0   0   0   0 | 55

  8  52  85  88  90  84  87  87  90  88  88  90  88  88  89  88  88  89  89  89  89  90  90  90  78  47  27  15   4   0   0   0 | P
Power Limit: 90.0
Optimization time: 587ms
alpha;fitness;time(ms);
0,950000;58,786179;587,000000
