alpha;rProb;runs;avgf;maxf;minf;avgopttime(ms)
0,000000;0,100000;10;8,148833;9,221744;6,778870;189,300000;
0,000000;0,300000;10;7,275737;8,213759;5,480344;81,400000;
0,000000;0,500000;10;6,990541;7,769042;6,043612;60,600000;
0,000000;0,700000;10;6,400860;7,137592;5,257985;62,900000;
0,000000;0,900000;10;5,394656;6,470516;4,762899;61,800000;
0,100000;0,100000;10;9,200043;10,670393;7,487346;63,000000;
0,100000;0,300000;10;8,859226;9,590479;7,237224;65,300000;
0,100000;0,500000;10;7,487776;9,065233;6,441400;61,700000;
0,100000;0,700000;10;6,815436;7,751106;5,509337;63,700000;
0,100000;0,900000;10;6,294115;7,373710;5,250123;58,800000;
0,200000;0,100000;10;9,785295;11,229238;8,314619;58,500000;
0,200000;0,300000;10;9,202703;10,281941;8,364619;62,100000;
0,200000;0,500000;10;8,466376;9,165233;6,806388;61,500000;
0,200000;0,700000;10;7,917936;8,358845;7,436118;55,900000;
0,200000;0,900000;10;6,938514;7,320639;6,637592;63,200000;
0,300000;0,100000;10;10,312420;11,538084;9,330344;62,800000;
0,300000;0,300000;10;9,503876;10,195086;8,617936;20,000000;
0,300000;0,500000;10;9,188698;10,825676;8,041892;21,800000;
0,300000;0,700000;10;8,181763;8,810012;7,531695;27,600000;
0,300000;0,900000;10;7,578213;8,558907;6,827273;19,000000;
0,400000;0,100000;10;10,432592;10,820516;9,559337;187,800000;
0,400000;0,300000;10;10,044091;10,905283;9,485258;35,200000;
0,400000;0,500000;10;9,271278;10,033907;8,718673;21,500000;
0,400000;0,700000;10;8,476450;9,070025;7,942506;18,700000;
0,400000;0,900000;10;8,552224;9,200491;7,890909;20,100000;
0,500000;0,100000;10;11,399079;12,209152;10,323710;181,100000;
0,500000;0,300000;10;10,559674;11,850430;8,594902;28,300000;
0,500000;0,500000;10;10,031787;11,116708;9,197174;24,900000;
0,500000;0,700000;10;9,926106;11,248157;8,983722;20,400000;
0,500000;0,900000;10;9,121376;9,990172;8,375000;19,400000;
0,600000;0,100000;10;11,988722;12,671990;11,429853;326,700000;
0,600000;0,300000;10;11,497039;12,616830;10,748034;46,600000;
0,600000;0,500000;10;10,948391;11,867445;10,435012;24,700000;
0,600000;0,700000;10;10,375418;10,912899;9,759705;22,000000;
0,600000;0,900000;10;9,759521;10,986364;9,166216;18,800000;
0,700000;0,100000;10;13,174656;13,929668;12,267506;350,800000;
0,700000;0,300000;10;12,401462;13,183415;11,290233;47,300000;
0,700000;0,500000;10;11,601622;12,690233;10,192629;27,300000;
0,700000;0,700000;10;11,052009;11,882617;9,863759;18,900000;
0,700000;0,900000;10;10,536861;11,855467;9,911364;19,500000;
0,800000;0,100000;10;14,317211;15,177887;13,408722;459,000000;
0,800000;0,300000;10;13,281695;14,261671;12,266830;39,400000;
0,800000;0,500000;10;12,443649;13,063268;11,767813;20,700000;
0,800000;0,700000;10;12,518477;13,564251;11,364251;21,600000;
0,800000;0,900000;10;11,738943;12,321744;11,106143;19,800000;
0,900000;0,100000;10;15,493575;16,345762;14,772543;333,300000;
0,900000;0,300000;10;14,505264;15,351781;13,393489;44,900000;
0,900000;0,500000;10;13,584306;14,757125;11,964926;30,900000;
0,900000;0,700000;10;12,819042;14,156818;11,383907;52,800000;
0,900000;0,900000;10;12,630442;13,306327;11,578071;20,500000;
1,000000;0,100000;10;16,875000;18,000000;15,500000;758,800000;
1,000000;0,300000;10;15,650000;16,750000;14,500000;53,500000;
1,000000;0,500000;10;14,300000;15,750000;12,250000;24,800000;
1,000000;0,700000;10;13,550000;14,750000;12,500000;20,400000;
1,000000;0,900000;10;13,575000;15,250000;12,500000;21,200000;
