alpha;rProb;runs;avgf;maxf;minf;avgopttime(ms)
0,500000;0,100000;100;42,411978;44,053133;40,770885;51,190000;
0,500000;0,300000;100;40,923486;42,787776;39,237715;47,180000;
0,500000;0,500000;100;40,615571;42,093059;39,283170;97,190000;
0,500000;0,700000;20;40,161149;41,116708;39,154177;483,700000;
