alpha;rProb;runs;avgf;maxf;minf;avgopttime(ms)
0,950000;0,000000;5;15,593913;16,491462;14,565817;187,800000;
0,950000;0,100000;5;15,532064;16,016462;15,040817;166,600000;
0,950000;0,300000;5;14,517813;15,515817;12,864036;124,000000;
0,950000;0,500000;5;14,907389;15,051935;14,807617;106,400000;
0,950000;0,700000;5;14,070006;15,048526;12,896499;110,200000;
0,950000;0,900000;5;13,392199;13,904607;13,058845;119,400000;
0,950000;1,000000;5;13,697365;14,519717;12,839281;103,800000;


